Amazon Job Listings
…
Last thing we will do is remove the irrelevant information from the dataset. The Description and desired qualifications can be removed since we will not use them anymore. We can also remove data values that have NAs

#Remove columns
amazon_df$Basic_Qual <- NULL
amazon_df$Preferred_Qual <- NULL
amazon_df$Description <- NULL

#Omit data with NA
amazon_df <- na.omit(amazon_df)

amazon_df %>% sample_n(50)

## # A tibble: 50 x 25
##    Position   Location Date                Country State City  Grad_School
##    <chr>      <chr>    <dttm>              <chr>   <chr> <chr>       <dbl>
##  1 Sr Manage~ US, WA,~ 2017-11-17 00:00:00 United~ WA    " Se~        1.00
##  2 Senior So~ US, OR,~ 2017-12-26 00:00:00 United~ OR    " Po~        0   
##  3 Software ~ US, WA,~ 2018-02-09 00:00:00 United~ WA    " Se~        1.00
##  4 Software ~ US, WA,~ 2018-02-15 00:00:00 United~ WA    " Se~        0   
##  5 Software ~ US, WA,~ 2018-01-12 00:00:00 United~ WA    " Se~        1.00
##  6 Senior So~ US, TX,~ 2018-02-12 00:00:00 United~ TX    " Au~        0   
##  7 Software ~ CA, MB,~ 2017-03-29 00:00:00 Canada  MB    " Wi~        1.00
##  8 Software ~ US, NJ,~ 2017-03-13 00:00:00 United~ NJ    " Ne~        0   
##  9 Software ~ US, CA,~ 2017-12-23 00:00:00 United~ CA    " Pa~        1.00
## 10 Software ~ US, CA,~ 2018-02-27 00:00:00 United~ CA    " Sa~        1.00
## # ... with 40 more rows, and 18 more variables: Job_Type <chr>,
## #   Minimum_Experience <dbl>, Java <dbl>, Python <dbl>, R <dbl>,
## #   MATLAB <dbl>, `C/C++/C#` <dbl>, PHP <dbl>, SQL <dbl>,
## #   JavaScript <dbl>, Swift <dbl>, Perl <dbl>, Ruby <dbl>,
## #   `HTML/CSS` <dbl>, Assembly <dbl>, AWS <dbl>, UNIX <dbl>, Git <dbl>
…
lang <- amazon_df
#Delete columns 1-9 in lang
lang <- lang[, -c(1:9)]
lang <- gather(lang, language, knowledge_level)

lang_tidy <- lang %>% group_by(language, knowledge_level) %>% summarize(num_occurances=n())

lang_tidy$total_size <- 3179 #3179 total entities

lang_tidy$percent <- (lang_tidy$num_occurances * 1.0) / lang_tidy$total_size

lang_tidy

## # A tibble: 47 x 5
## # Groups:   language [?]
##    language knowledge_level num_occurances total_size percent
##    <chr>              <dbl>          <int>      <dbl>   <dbl>
##  1 Assembly            0              3172       3179 0.998  
##  2 Assembly            2.00              7       3179 0.00220
##  3 AWS                 0              2656       3179 0.835  
##  4 AWS                 1.00            465       3179 0.146  
##  5 AWS                 2.00             58       3179 0.0182 
##  6 C/C++/C#            0               894       3179 0.281  
##  7 C/C++/C#            1.00            211       3179 0.0664 
##  8 C/C++/C#            2.00           2074       3179 0.652  
##  9 Git                 0              3142       3179 0.988  
## 10 Git                 1.00             28       3179 0.00881
## # ... with 37 more rows
…
